…
-   `agency` Has one row for each law enforcement agency, for each year
-   `officer` Has one row for each officer, for each year.

Currently 2021 is the only year represented.

## Examples

The `agency` table looks like this:

``` r
library(njoagleod)
library(tidyverse)
agency
#> # A tibble: 529 × 6
#>     year agency_county   agency_name   agency_type hiring_governed… municipality
#>    <dbl> <chr>           <chr>         <fct>       <lgl>            <chr>       
#>  1  2021 Atlantic County Absecon City… Municipal   FALSE            Absecon city
#>  2  2021 Atlantic County Atlantic Cit… Municipal   TRUE             Atlantic Ci…
#>  3  2021 Atlantic County Atlantic Co … County      TRUE             <NA>        
#>  4  2021 Atlantic County Atlantic Cou… County      FALSE            <NA>        
#>  5  2021 Atlantic County Brigantine PD Municipal   FALSE            Brigantine …
#>  6  2021 Atlantic County Egg Harbor C… Municipal   TRUE             Egg Harbor …
#>  7  2021 Atlantic County Egg Harbor T… Municipal   FALSE            Egg Harbor …
#>  8  2021 Atlantic County Galloway Twp… Municipal   FALSE            Galloway to…
#>  9  2021 Atlantic County Hamilton Twp… Municipal   FALSE            Hamilton to…
#> 10  2021 Atlantic County Hammonton PD  Municipal   TRUE             Hammonton t…
#> # … with 519 more rows
```

The columns `year`, `agency_county` and `agency_name` form the primary
key.

The `officer` table looks like this.

``` r
officer
#> # A tibble: 30,565 × 6
#>     year agency_county   agency_name     officer_age officer_race officer_gender
#>    <dbl> <fct>           <chr>                 <dbl> <fct>        <fct>         
#>  1  2021 Atlantic County Absecon City PD          20 White        Male          
#>  2  2021 Atlantic County Absecon City PD          22 White        Male          
#>  3  2021 Atlantic County Absecon City PD          26 Black        Male          
#>  4  2021 Atlantic County Absecon City PD          27 White        Male          
#>  5  2021 Atlantic County Absecon City PD          29 White        Male          
#>  6  2021 Atlantic County Absecon City PD          29 White        Male          
#>  7  2021 Atlantic County Absecon City PD          30 White        Male          
#>  8  2021 Atlantic County Absecon City PD          32 White        Male          
#>  9  2021 Atlantic County Absecon City PD          34 White        Male          
#> 10  2021 Atlantic County Absecon City PD          35 White        Male          
#> # … with 30,555 more rows
```
…
For example, here are the agencies with the highest number of
use-of-force incidents per officer.

``` r
officer %>% 
  group_by(year, agency_county, agency_name) %>%
  summarize(officer_count = n(), .groups = "drop") %>%
  left_join(njoaguof::incident, by=c("agency_county", "agency_name")) %>%
  filter(lubridate::year(incident_date_1)==year) %>%
  group_by(year, agency_county, agency_name, officer_count) %>%
  summarize(incident_count = n(), .groups="drop") %>%
  mutate(incidents_per_officer = incident_count / officer_count) %>%
  select(-agency_county) %>%
  arrange(desc(incidents_per_officer))
#> # A tibble: 468 × 5
#>     year agency_name               officer_count incident_count incidents_per_o…
#>    <dbl> <chr>                             <int>          <int>            <dbl>
#>  1  2021 North Wildwood City PD               27             68             2.52
#>  2  2021 Seaside Heights PD                   25             56             2.24
#>  3  2021 Wildwood PD                          44             97             2.20
#>  4  2021 South River PD                       32             65             2.03
#>  5  2021 Willingboro PD                       62            124             2   
#>  6  2021 Millville PD                         80            154             1.92
#>  7  2021 New Jersey Transit Police           301            536             1.78
#>  8  2021 Tuckerton Boro PD                    13             22             1.69
#>  9  2021 Stratford Boro PD                    19             31             1.63
#> 10  2021 Middle Twp PD                        54             88             1.63
#> # … with 458 more rows
```
…
